{
    "port": 3000,
    "mongoose": {
        "uri": "mongodb://localhost/test"
    },
    "raven": {
        "dsn": "http://905fd323c9af4957ba8c861bf376542a:e8d8c6b2641c4158957e184889c4510f@sentry.animeadvice.me/3"
    },
    "session": {
        "secret": "b34oijt3h5893u98iuv9823u498",
        "key": "sid",
        "cookie": {
            "path": "/",
            "httpOnly": true,
            "maxAge": null
        }
    }
}